EESchema Schematic File Version 4
EELAYER 30 0
EELAYER END
$Descr A4 11693 8268
encoding utf-8
Sheet 1 1
Title ""
Date ""
Rev ""
Comp ""
Comment1 ""
Comment2 ""
Comment3 ""
Comment4 ""
$EndDescr
$Comp
L MCU_Microchip_ATtiny:ATtiny84-20SSU U?
U 1 1 5FAEB9F7
P 5350 3750
F 0 "U?" H 4821 3796 50  0000 R CNN
F 1 "ATtiny84-20SSU" H 4821 3705 50  0000 R CNN
F 2 "Package_SO:SOIC-14_3.9x8.7mm_P1.27mm" H 5350 3750 50  0001 C CIN
F 3 "http://ww1.microchip.com/downloads/en/DeviceDoc/doc8006.pdf" H 5350 3750 50  0001 C CNN
	1    5350 3750
	1    0    0    -1  
$EndComp
$Comp
L Device:R R?
U 1 1 5FAEC770
P 8300 4350
F 0 "R?" H 8370 4396 50  0000 L CNN
F 1 "820" H 8370 4305 50  0000 L CNN
F 2 "" V 8230 4350 50  0001 C CNN
F 3 "~" H 8300 4350 50  0001 C CNN
	1    8300 4350
	1    0    0    -1  
$EndComp
$Comp
L Device:R R?
U 1 1 5FAECF17
P 7950 4200
F 0 "R?" H 8020 4246 50  0000 L CNN
F 1 "510" H 8020 4155 50  0000 L CNN
F 2 "" V 7880 4200 50  0001 C CNN
F 3 "~" H 7950 4200 50  0001 C CNN
	1    7950 4200
	1    0    0    -1  
$EndComp
$Comp
L Device:R R?
U 1 1 5FAED028
P 8300 3650
F 0 "R?" H 8370 3696 50  0000 L CNN
F 1 "150" H 8370 3605 50  0000 L CNN
F 2 "" V 8230 3650 50  0001 C CNN
F 3 "~" H 8300 3650 50  0001 C CNN
	1    8300 3650
	1    0    0    -1  
$EndComp
$Comp
L Connector_Generic:Conn_01x03 J?
U 1 1 5FAED3F1
P 8550 4000
F 0 "J?" H 8630 4042 50  0000 L CNN
F 1 "Switch" H 8630 3951 50  0000 L CNN
F 2 "" H 8550 4000 50  0001 C CNN
F 3 "~" H 8550 4000 50  0001 C CNN
	1    8550 4000
	1    0    0    -1  
$EndComp
$Comp
L Connector_Generic:Conn_01x04 J?
U 1 1 5FAED8D5
P 7650 5000
F 0 "J?" H 7730 4992 50  0000 L CNN
F 1 "Display" H 7730 4901 50  0000 L CNN
F 2 "" H 7650 5000 50  0001 C CNN
F 3 "~" H 7650 5000 50  0001 C CNN
	1    7650 5000
	1    0    0    -1  
$EndComp
$Comp
L power:VCC #PWR?
U 1 1 5FAEE409
P 5350 2750
F 0 "#PWR?" H 5350 2600 50  0001 C CNN
F 1 "VCC" H 5365 2923 50  0000 C CNN
F 2 "" H 5350 2750 50  0001 C CNN
F 3 "" H 5350 2750 50  0001 C CNN
	1    5350 2750
	1    0    0    -1  
$EndComp
$Comp
L power:GND #PWR?
U 1 1 5FAEE866
P 5350 4850
F 0 "#PWR?" H 5350 4600 50  0001 C CNN
F 1 "GND" H 5355 4677 50  0000 C CNN
F 2 "" H 5350 4850 50  0001 C CNN
F 3 "" H 5350 4850 50  0001 C CNN
	1    5350 4850
	1    0    0    -1  
$EndComp
Wire Wire Line
	5350 2750 5350 2850
Wire Wire Line
	5350 4650 5350 4850
$Comp
L power:VCC #PWR?
U 1 1 5FAF05B2
P 7100 5250
F 0 "#PWR?" H 7100 5100 50  0001 C CNN
F 1 "VCC" H 7115 5423 50  0000 C CNN
F 2 "" H 7100 5250 50  0001 C CNN
F 3 "" H 7100 5250 50  0001 C CNN
	1    7100 5250
	-1   0    0    1   
$EndComp
$Comp
L power:GND #PWR?
U 1 1 5FAF0FDD
P 7300 5250
F 0 "#PWR?" H 7300 5000 50  0001 C CNN
F 1 "GND" H 7305 5077 50  0000 C CNN
F 2 "" H 7300 5250 50  0001 C CNN
F 3 "" H 7300 5250 50  0001 C CNN
	1    7300 5250
	1    0    0    -1  
$EndComp
Wire Wire Line
	7450 5200 7300 5200
Wire Wire Line
	7300 5200 7300 5250
Wire Wire Line
	7450 5100 7100 5100
Wire Wire Line
	7100 5100 7100 5250
Text GLabel 7250 4900 0    50   Input ~ 0
SDA
Text GLabel 7250 5000 0    50   Input ~ 0
SCL
Wire Wire Line
	7450 4900 7250 4900
Wire Wire Line
	7450 5000 7250 5000
Text GLabel 6100 3750 2    50   Input ~ 0
SDA
Text GLabel 6100 3550 2    50   Input ~ 0
SCL
Wire Wire Line
	6100 3550 5950 3550
Wire Wire Line
	5950 3750 6100 3750
Text GLabel 6100 3350 2    50   Input ~ 0
SWITCH_IN
Text GLabel 7800 4000 0    50   Input ~ 0
SWITCH_IN
Wire Wire Line
	8350 4000 7950 4000
Wire Wire Line
	7950 4050 7950 4000
Connection ~ 7950 4000
Wire Wire Line
	7950 4000 7800 4000
$Comp
L power:GND #PWR?
U 1 1 5FAF6848
P 7950 4400
F 0 "#PWR?" H 7950 4150 50  0001 C CNN
F 1 "GND" H 7955 4227 50  0000 C CNN
F 2 "" H 7950 4400 50  0001 C CNN
F 3 "" H 7950 4400 50  0001 C CNN
	1    7950 4400
	1    0    0    -1  
$EndComp
Wire Wire Line
	7950 4350 7950 4400
$Comp
L power:VCC #PWR?
U 1 1 5FAF7D4A
P 8300 4600
F 0 "#PWR?" H 8300 4450 50  0001 C CNN
F 1 "VCC" H 8315 4773 50  0000 C CNN
F 2 "" H 8300 4600 50  0001 C CNN
F 3 "" H 8300 4600 50  0001 C CNN
	1    8300 4600
	-1   0    0    1   
$EndComp
$Comp
L power:VCC #PWR?
U 1 1 5FAF83B8
P 8300 3300
F 0 "#PWR?" H 8300 3150 50  0001 C CNN
F 1 "VCC" H 8315 3473 50  0000 C CNN
F 2 "" H 8300 3300 50  0001 C CNN
F 3 "" H 8300 3300 50  0001 C CNN
	1    8300 3300
	1    0    0    -1  
$EndComp
Wire Wire Line
	8300 3300 8300 3500
Wire Wire Line
	8350 3900 8300 3900
Wire Wire Line
	8300 3900 8300 3800
Wire Wire Line
	8350 4100 8300 4100
Wire Wire Line
	8300 4100 8300 4200
Wire Wire Line
	8300 4500 8300 4600
Wire Wire Line
	6100 3350 5950 3350
Text GLabel 6100 3450 2    50   Input ~ 0
PULSE_IN
Wire Wire Line
	6100 3450 5950 3450
Text GLabel 6100 3250 2    50   Input ~ 0
PULSE_OUT
Wire Wire Line
	6100 3250 5950 3250
$EndSCHEMATC
